Chapter 3 - Data Transformation with dplyr
…
The first argument is a data frame.

The subsequent arguments describe what to do with the data frame, using the variable names (without quotes).

The result is a new data frame.

Together these properties make it easy to chain together multiple simple steps to achieve a complex result. Lets dive in and see how these verbs work.

Filter rows with filter()

filter() allows you to subset observations based on their values. The first argument is the name of the data frame. The second and subsequent arguments are the expressions that filter the data frame. For example, we can select all flights on January 1st with:

filter(flights, month == 1, day == 1)
#> # A tibble: 842 x 19
#>    year month   day dep_time sched_dep_time dep_delay arr_time
#>   <int> <int> <int>    <int>          <int>     <dbl>    <int>
#> 1  2013     1     1      517            515         2      830
#> 2  2013     1     1      533            529         4      850
#> 3  2013     1     1      542            540         2      923
#> 4  2013     1     1      544            545        -1     1004
#> 5  2013     1     1      554            600        -6      812
#> 6  2013     1     1      554            558        -4      740
#> # ... with 836 more rows, and 12 more variables: sched_arr_time <int>,
#> #   arr_delay <dbl>, carrier <chr>, flight <int>, tailnum <chr>,
#> #   origin <chr>, dest <chr>, air_time <dbl>, distance <dbl>, hour <dbl>,
#> #   minute <dbl>, time_hour <dttm>

When you run that line of code, dplyr executes the filtering operation and returns a new data frame. dplyr functions never modify their inputs, so if you want to save the result, youll need to use the assignment operator, <-:

jan1 <- filter(flights, month == 1, day == 1)

R either prints out the results, or saves them to a variable. If you want to do both, you can wrap the assignment in parentheses:

(dec25 <- filter(flights, month == 12, day == 25))
#> # A tibble: 719 x 19
#>    year month   day dep_time sched_dep_time dep_delay arr_time
#>   <int> <int> <int>    <int>          <int>     <dbl>    <int>
#> 1  2013    12    25      456            500        -4      649
#> 2  2013    12    25      524            515         9      805
#> 3  2013    12    25      542            540         2      832
#> 4  2013    12    25      546            550        -4     1022
#> 5  2013    12    25      556            600        -4      730
#> 6  2013    12    25      557            600        -3      743
#> # ... with 713 more rows, and 12 more variables: sched_arr_time <int>,
#> #   arr_delay <dbl>, carrier <chr>, flight <int>, tailnum <chr>,
#> #   origin <chr>, dest <chr>, air_time <dbl>, distance <dbl>, hour <dbl>,
#> #   minute <dbl>, time_hour <dttm>
…
summarise(flights, delay = mean(dep_delay, na.rm = TRUE))
#> # A tibble: 1 x 1
#>      delay
#>      <dbl>
#> 1 12.63907

(Well come back to what that na.rm = TRUE means very shortly.)

group_by()

summarise() is not terribly useful unless we pair it with group_by(). This changes the unit of analysis from the complete dataset to individual groups. Then, when you use the dplyr verbs on a grouped data frame theyll be automatically applied by group. For example, if we applied exactly the same code to a data frame grouped by date, we get the average delay per date:

by_day <- group_by(flights, year, month, day)
summarise(by_day, delay = mean(dep_delay, na.rm = TRUE))
#> # A tibble: 365 x 4
#> # Groups:   year, month [?]
#>    year month   day     delay
#>   <int> <int> <int>     <dbl>
#> 1  2013     1     1 11.548926
#> 2  2013     1     2 13.858824
#> 3  2013     1     3 10.987832
#> 4  2013     1     4  8.951595
#> 5  2013     1     5  5.732218
#> 6  2013     1     6  7.148014
#> # ... with 359 more rows
…
This focuses on the transformations, not whats being transformed, which makes the code easier to read. You can read it as a series of imperative statements: group, then summarize, then filter. As suggested by this reading, a good way to pronounce %>% when reading code is then.

Behind the scenes, x %>% f(y) turns into f(x, y), and x %>% f(y) %>% g(z) turns into g(f(x, y), z) and so on. You can use the pipe to rewrite multiple operations in a way that you can read left-to-right, top-to-bottom. Well use piping frequently from now on because it considerably improves the readability of code, and well come back to it in more detail in [pipes].

Working with the pipe is one of the key criteria for belonging to the tidyverse. The only exception is ggplot2: it was written before the pipe was discovered. Unfortunately, the next iteration of ggplot2, ggvis, which does use the pipe, isnt quite ready for prime time yet.

Missing values

You may have wondered about the na.rm argument we used above. What happens if we dont set it?

flights %>% 
  group_by(year, month, day) %>% 
  summarise(mean = mean(dep_delay))
#> # A tibble: 365 x 4
#> # Groups:   year, month [?]
#>    year month   day  mean
#>   <int> <int> <int> <dbl>
#> 1  2013     1     1    NA
#> 2  2013     1     2    NA
#> 3  2013     1     3    NA
#> 4  2013     1     4    NA
#> 5  2013     1     5    NA
#> 6  2013     1     6    NA
#> # ... with 359 more rows

We get a lot of missing values! Thats because aggregation functions obey the usual rule of missing values: if theres any missing value in the input, the output will be a missing value. Fortunately, all aggregation functions have an na.rm argument which removes the missing values prior to computation:

flights %>% 
  group_by(year, month, day) %>% 
  summarise(mean = mean(dep_delay, na.rm = TRUE))
#> # A tibble: 365 x 4
#> # Groups:   year, month [?]
#>    year month   day      mean
#>   <int> <int> <int>     <dbl>
#> 1  2013     1     1 11.548926
#> 2  2013     1     2 13.858824
#> 3  2013     1     3 10.987832
#> 4  2013     1     4  8.951595
#> 5  2013     1     5  5.732218
#> 6  2013     1     6  7.148014
#> # ... with 359 more rows

In this case, where missing values represent cancelled flights, we could also tackle the problem by first removing the cancelled flights. Well save this dataset so we can reuse in the next few examples.

not_cancelled ***

not_cancelled <- flights %>% 
  filter(!is.na(dep_delay), !is.na(arr_delay))

not_cancelled %>% 
  group_by(year, month, day) %>% 
  summarise(mean = mean(dep_delay))
#> # A tibble: 365 x 4
#> # Groups:   year, month [?]
#>    year month   day      mean
#>   <int> <int> <int>     <dbl>
#> 1  2013     1     1 11.435620
#> 2  2013     1     2 13.677802
#> 3  2013     1     3 10.907778
#> 4  2013     1     4  8.965859
#> 5  2013     1     5  5.732218
#> 6  2013     1     6  7.145959
#> # ... with 359 more rows
…
Just using means, counts, and sum can get you a long way, but R provides many other useful summary functions:

mean(), median()

Measures of location: weve used mean(x), but median(x) is also useful. The mean is the sum divided by the length; the median is a value where 50% of x is above it, and 50% is below it.

Its sometimes useful to combine aggregation with logical subsetting. We havent talked about this sort of subsetting yet, but youll learn more about it in [subsetting].

not_cancelled %>% 
  group_by(year, month, day) %>% 
  summarise(
    avg_delay1 = mean(arr_delay),
    avg_delay2 = mean(arr_delay[arr_delay > 0]) # the average positive delay
  )
#> # A tibble: 365 x 5
#> # Groups:   year, month [?]
#>    year month   day avg_delay1 avg_delay2
#>   <int> <int> <int>      <dbl>      <dbl>
#> 1  2013     1     1  12.651023   32.48156
#> 2  2013     1     2  12.692888   32.02991
#> 3  2013     1     3   5.733333   27.66087
#> 4  2013     1     4  -1.932819   28.30976
#> 5  2013     1     5  -1.525802   22.55882
#> 6  2013     1     6   4.236429   24.37270
#> # ... with 359 more rows

sd(), IQR(), mad()

Measures of spread: sd(x), IQR(x), mad(x). The mean squared deviation, or standard deviation or sd for short, is the standard measure of spread. The interquartile range IQR() and median absolute deviation mad(x) are robust equivalents that may be more useful if you have outliers.

# Why is distance to some destinations more variable than to others?
not_cancelled %>% 
  group_by(dest) %>% 
  summarise(distance_sd = sd(distance)) %>% 
  arrange(desc(distance_sd))
#> # A tibble: 104 x 2
#>    dest distance_sd
#>   <chr>       <dbl>
#> 1   EGE   10.542765
#> 2   SAN   10.350094
#> 3   SFO   10.216017
#> 4   HNL   10.004197
#> 5   SEA    9.977993
#> 6   LAS    9.907786
#> # ... with 98 more rows

min(), quantile(), max()

Measures of rank: min(x), quantile(x, 0.25), max(x). Quantiles are a generalisation of the median. For example, quantile(x, 0.25) will find a value of x that is greater than 25% of the values, and less than the remaining 75%.

# When do the first and last flights leave each day?
not_cancelled %>% 
  group_by(year, month, day) %>% 
  summarise(
    first = min(dep_time),
    last = max(dep_time)
  )
#> # A tibble: 365 x 5
#> # Groups:   year, month [?]
#>    year month   day first  last
#>   <int> <int> <int> <dbl> <dbl>
#> 1  2013     1     1   517  2356
#> 2  2013     1     2    42  2354
#> 3  2013     1     3    32  2349
#> 4  2013     1     4    25  2358
#> 5  2013     1     5    14  2357
#> 6  2013     1     6    16  2355
#> # ... with 359 more rows

first(), nth(), last()

Measures of position: first(x), nth(x, 2), last(x). These work similarly to x[1], x[2], and x[length(x)] but let you set a default value if that position does not exist (i.e.youre trying to get the 3rd element from a group that only has two elements). For example, we can find the first and last departure for each day:

not_cancelled %>% 
  group_by(year, month, day) %>% 
  summarise(
    first_dep = first(dep_time), 
    last_dep = last(dep_time)
  )
#> # A tibble: 365 x 5
#> # Groups:   year, month [?]
#>    year month   day first_dep last_dep
#>   <int> <int> <int>     <int>    <int>
#> 1  2013     1     1       517     2356
#> 2  2013     1     2        42     2354
#> 3  2013     1     3        32     2349
#> 4  2013     1     4        25     2358
#> 5  2013     1     5        14     2357
#> 6  2013     1     6        16     2355
#> # ... with 359 more rows

These functions are complementary to filtering on ranks. Filtering gives you all variables, with each observation in a separate row:

not_cancelled %>% 
  group_by(year, month, day) %>% 
  mutate(r = min_rank(desc(dep_time))) %>% 
  filter(r %in% range(r))
#> # A tibble: 770 x 20
#> # Groups:   year, month, day [365]
#>    year month   day dep_time sched_dep_time dep_delay arr_time
#>   <int> <int> <int>    <int>          <int>     <dbl>    <int>
#> 1  2013     1     1      517            515         2      830
#> 2  2013     1     1     2356           2359        -3      425
#> 3  2013     1     2       42           2359        43      518
#> 4  2013     1     2     2354           2359        -5      413
#> 5  2013     1     3       32           2359        33      504
#> 6  2013     1     3     2349           2359       -10      434
#> # ... with 764 more rows, and 13 more variables: sched_arr_time <int>,
#> #   arr_delay <dbl>, carrier <chr>, flight <int>, tailnum <chr>,
#> #   origin <chr>, dest <chr>, air_time <dbl>, distance <dbl>, hour <dbl>,
#> #   minute <dbl>, time_hour <dttm>, r <int>

n(), sum(!is.na()), n_distinct(), count()

Counts: Youve seen n(), which takes no arguments, and returns the size of the current group. To count the number of non-missing values, use sum(!is.na(x)). To count the number of distinct (unique) values, use n_distinct(x).

# Which destinations have the most carriers?
not_cancelled %>% 
  group_by(dest) %>% 
  summarise(carriers = n_distinct(carrier)) %>% 
  arrange(desc(carriers))
#> # A tibble: 104 x 2
#>    dest carriers
#>   <chr>    <int>
#> 1   ATL        7
#> 2   BOS        7
#> 3   CLT        7
#> 4   ORD        7
#> 5   TPA        7
#> 6   AUS        6
#> # ... with 98 more rows

Counts are so useful that dplyr provides a simple helper if all you want is a count:

not_cancelled %>% 
  count(dest)
#> # A tibble: 104 x 2
#>    dest     n
#>   <chr> <int>
#> 1   ABQ   254
#> 2   ACK   264
#> 3   ALB   418
#> 4   ANC     8
#> 5   ATL 16837
#> 6   AUS  2411
#> # ... with 98 more rows

You can optionally provide a weight variable. For example, you could use this to count (sum) the total number of miles a plane flew:

not_cancelled %>% 
  count(tailnum, wt = distance)
#> # A tibble: 4,037 x 2
#>   tailnum      n
#>     <chr>  <dbl>
#> 1  D942DN   3418
#> 2  N0EGMQ 239143
#> 3  N10156 109664
#> 4  N102UW  25722
#> 5  N103US  24619
#> 6  N104UW  24616
#> # ... with 4,031 more rows

Counts and proportions of logical values: sum(x > 10), mean(y == 0). When used with numeric functions, TRUE is converted to 1 and FALSE to 0. This makes sum() and mean() very useful: sum(x) gives the number of TRUEs in x, and mean(x) gives the proportion.

# How many flights left before 5am? (these usually indicate delayed
# flights from the previous day)
not_cancelled %>% 
  group_by(year, month, day) %>% 
  summarise(n_early = sum(dep_time < 500))
#> # A tibble: 365 x 4
#> # Groups:   year, month [?]
#>    year month   day n_early
#>   <int> <int> <int>   <int>
#> 1  2013     1     1       0
#> 2  2013     1     2       3
#> 3  2013     1     3       4
#> 4  2013     1     4       3
#> 5  2013     1     5       3
#> 6  2013     1     6       2
#> # ... with 359 more rows

# What proportion of flights are delayed by more than an hour?
not_cancelled %>% 
  group_by(year, month, day) %>% 
  summarise(hour_perc = mean(arr_delay > 60))
#> # A tibble: 365 x 4
#> # Groups:   year, month [?]
#>    year month   day  hour_perc
#>   <int> <int> <int>      <dbl>
#> 1  2013     1     1 0.07220217
#> 2  2013     1     2 0.08512931
#> 3  2013     1     3 0.05666667
#> 4  2013     1     4 0.03964758
#> 5  2013     1     5 0.03486750
#> 6  2013     1     6 0.04704463
#> # ... with 359 more rows

Grouping by multiple variables

When you group by multiple variables, each summary peels off one level of the grouping. That makes it easy to progressively roll up a dataset:

daily ***

daily <- group_by(flights, year, month, day)
(per_day   <- summarise(daily, flights = n()))
#> # A tibble: 365 x 4
#> # Groups:   year, month [?]
#>    year month   day flights
#>   <int> <int> <int>   <int>
#> 1  2013     1     1     842
#> 2  2013     1     2     943
#> 3  2013     1     3     914
#> 4  2013     1     4     915
#> 5  2013     1     5     720
#> 6  2013     1     6     832
#> # ... with 359 more rows

(per_month <- summarise(per_day, flights = sum(flights)))
#> # A tibble: 12 x 3
#> # Groups:   year [?]
#>    year month flights
#>   <int> <int>   <int>
#> 1  2013     1   27004
#> 2  2013     2   24951
#> 3  2013     3   28834
#> 4  2013     4   28330
#> 5  2013     5   28796
#> 6  2013     6   28243
#> # ... with 6 more rows
…
Brainstorm at least 5 different ways to assess the typical delay characteristics of a group of flights. Consider the following scenarios:

A flight is 15 minutes early 50% of the time, and 15 minutes late 50% of the time.

# First, let's start with a simple sanity check. Do the results look logical when we look at a summary of number of flights for a given flight(number) and carrier comination as compared to how many of them respectivelty are 15 minutes early or late. 
# Yes, the results look logical. 

not_cancelled %>%
  group_by(flight, carrier) %>%
  summarize(
    n = n(),
    n_early_15 = sum(arr_delay <= -15),
    n_late_15  = sum(arr_delay >= 15)
    )
#> # A tibble: 5,706 x 5
#> # Groups:   flight [?]
#>   flight carrier     n n_early_15 n_late_15
#>    <int>   <chr> <int>      <int>     <int>
#> 1      1      AA   361        166        47
#> 2      1      B6   273         60        88
#> 3      1      DL    30         18         2
#> 4      1      UA     3          2         0
#> 5      1      WN    30          1        10
#> 6      2      B6    50          4         6
#> # ... with 5,700 more rows
…
# Limit to at least 20 flights to remove small samples.
# Group by carrier, flight and destination to eliminate overlapping designations.
# Flights which arrived more than 15 minutes or more early 50% of the time, OR 15 minutes or more late 50% of the time.
# (No flights averaged both.)

not_cancelled %>%
  group_by(carrier, flight, dest)%>%
  summarize(
    n = n(),
    pct_early_15 = mean(arr_delay <= -15),
    pct_late_15  = mean(arr_delay >= 15)
  ) %>%
  filter(n >= 20, pct_early_15 >= .5 | pct_late_15 >= .5)
#> # A tibble: 458 x 6
#> # Groups:   carrier, flight [450]
#>   carrier flight  dest     n pct_early_15 pct_late_15
#>     <chr>  <int> <chr> <int>        <dbl>       <dbl>
#> 1      9E   2907   BUF    44    0.5000000   0.2500000
#> 2      9E   2918   IND    58    0.6206897   0.2068966
#> 3      9E   2934   MCI    28    0.6428571   0.1785714
#> 4      9E   2939   PIT    28    0.5000000   0.1071429
#> 5      9E   3300   DCA    40    0.6250000   0.1500000
#> 6      9E   3302   MSP    26    0.5769231   0.1153846
#> # ... with 452 more rows

A flight is always 10 minutes late.

not_cancelled %>%
  group_by(carrier, flight, dest)%>%
  summarize(
    n = n(),
    pct_late_10 = mean(arr_delay >= 10)
  ) %>%
  filter(n >= 5, pct_late_10 == 1)
#> # A tibble: 10 x 5
#> # Groups:   carrier, flight [10]
#>   carrier flight  dest     n pct_late_10
#>     <chr>  <int> <chr> <int>       <dbl>
#> 1      9E   3585   PHL     6           1
#> 2      EV   3827   CAE     5           1
#> 3      EV   5058   ATL     7           1
#> 4      EV   5525   MHT     5           1
#> 5      EV   5679   CLT     6           1
#> 6      UA    374   ORD     6           1
#> # ... with 4 more rows

A flight is 30 minutes early 50% of the time, and 30 minutes late 50% of the time.

not_cancelled %>%
  group_by(carrier, flight, dest)%>%
  summarize(
    n = n(),
    pct_early_30 = mean(arr_delay <= -30),
    pct_late_30 = mean(arr_delay >= 30)
  ) %>%
  filter(n >= 5, pct_early_30 >= .3, pct_late_30 >= .3)
#> # A tibble: 9 x 6
#> # Groups:   carrier, flight [9]
#>   carrier flight  dest     n pct_early_30 pct_late_30
#>     <chr>  <int> <chr> <int>        <dbl>       <dbl>
#> 1      9E   4191   BWI    13    0.3076923   0.3076923
#> 2      EV   4159   CLE     8    0.3750000   0.3750000
#> 3      UA    271   LAS     6    0.5000000   0.3333333
#> 4      UA    810   PBI     5    0.4000000   0.4000000
#> 5      UA   1252   SFO     6    0.5000000   0.3333333
#> 6      UA   1426   IAH     6    0.3333333   0.3333333
#> # ... with 3 more rows

99% of the time a flight is on time. 1% of the time its 2 hours late.

not_cancelled %>%
  group_by(carrier, flight, dest) %>%
  summarize(
    n = n(),
    on_time   = mean(arr_delay <= 0),
    late_2hrs = mean(arr_delay >= 120)
  ) %>%
  filter(n >20, on_time >= .99 | late_2hrs >= .01)
#> # A tibble: 1,838 x 6
#> # Groups:   carrier, flight [1,729]
#>   carrier flight  dest     n   on_time  late_2hrs
#>     <chr>  <int> <chr> <int>     <dbl>      <dbl>
#> 1      9E   2901   BOS    55 0.6181818 0.05454545
#> 2      9E   2902   BOS    53 0.6981132 0.01886792
#> 3      9E   2903   BOS    27 0.6296296 0.03703704
#> 4      9E   2904   BOS    52 0.5576923 0.03846154
#> 5      9E   2906   BUF    40 0.5750000 0.07500000
#> 6      9E   2907   BUF    44 0.7045455 0.02272727
#> # ... with 1,832 more rows
…
